{
  "project_info": {
    "project_number": "67032264346",
    "firebase_url": "https://z88-mahjong.firebaseio.com",
    "project_id": "z88-mahjong",
    "storage_bucket": "z88-mahjong.appspot.com"
  },
  "client": [
    {
      "client_info": {
        "mobilesdk_app_id": "1:67032264346:android:3fef33b82c4fa938",
        "android_client_info": {
          "package_name": "mahjong.z88.coinbet"
        }
      },
      "oauth_client": [
        {
          "client_id": "67032264346-lc3g15p38nuddnglf2ul52bglgcgio7a.apps.googleusercontent.com",
          "client_type": 1,
          "android_info": {
            "package_name": "mahjong.z88.coinbet",
            "certificate_hash": "80cb35ac48d39fc8a9312fe93fd0150ce6026e4c"
          }
        },
        {
          "client_id": "67032264346-s602edglgfk91j190re6g07deark4k6d.apps.googleusercontent.com",
          "client_type": 3
        }
      ],
      "api_key": [
        {
          "current_key": "AIzaSyD6NDeHGN7L2ORqeHZdxswsJU8sAJvkDmw"
        }
      ],
      "services": {
        "analytics_service": {
          "status": 1
        },
        "appinvite_service": {
          "status": 2,
          "other_platform_oauth_client": [
            {
              "client_id": "67032264346-s602edglgfk91j190re6g07deark4k6d.apps.googleusercontent.com",
              "client_type": 3
            },
            {
              "client_id": "67032264346-feuqiq5vd3djmqgiqdl3n63q5g47q4uu.apps.googleusercontent.com",
              "client_type": 2,
              "ios_info": {
                "bundle_id": "mahjong.z88.coinbet"
              }
            }
          ]
        },
        "ads_service": {
          "status": 2
        }
      }
    }
  ],
  "configuration_version": "1"
}