info face="enter_font" size=32 bold=0 italic=0 charset="" unicode=0 stretchH=100 smooth=1 aa=1 padding=0,0,0,0 spacing=5,5
common lineHeight=54 base=26 scaleW=256 scaleH=128 pages=1 packed=0 alphaChnl=1 redChnl=0 greenChnl=0 blueChnl=0
page id=0 file="enter_font.png"
chars count=9
char id=36827 x=64 y=0 width=58 height=61 xoffset=0 yoffset=-1 xadvance=61 page=0 chnl=0 letter="进"
char id=20837 x=0 y=0 width=59 height=60 xoffset=0 yoffset=0 xadvance=62 page=0 chnl=0 letter="入"
char id=69 x=0 y=65 width=34 height=49 xoffset=12 yoffset=5 xadvance=37 page=0 chnl=0 letter="E"
char id=110 x=77 y=66 width=31 height=39 xoffset=14 yoffset=15 xadvance=34 page=0 chnl=0 letter="n"
char id=116 x=113 y=66 width=24 height=47 xoffset=17 yoffset=8 xadvance=27 page=0 chnl=0 letter="t"
char id=101 x=39 y=66 width=33 height=40 xoffset=13 yoffset=15 xadvance=36 page=0 chnl=0 letter="e"
char id=114 x=127 y=0 width=23 height=39 xoffset=10 yoffset=15 xadvance=26 page=0 chnl=0 letter="r"
char id=32 x=0 y=0 width=0 height=0 xoffset=0 yoffset=0 xadvance=20 page=0 chnl=0 letter=" "
char id=9 x=0 y=0 width=0 height=0 xoffset=0 yoffset=0 xadvance=160 page=0 chnl=0 letter="	"

kernings count=10
kerning first=101  second=110  amount=-1
kerning first=101  second=114  amount=-1
kerning first=101  second=116  amount=-3
kerning first=110  second=101  amount=-1
kerning first=110  second=116  amount=-2
kerning first=114  second=101  amount=-4
kerning first=114  second=110  amount=-1
kerning first=114  second=114  amount=-1
kerning first=114  second=116  amount=-1
kerning first=116  second=101  amount=0
