info face="state_number" size=32 bold=0 italic=0 charset="" unicode=0 stretchH=100 smooth=1 aa=1 padding=0,0,0,0 spacing=2,2
common lineHeight=42 base=26 scaleW=64 scaleH=256 pages=1 packed=0 alphaChnl=1 redChnl=0 greenChnl=0 blueChnl=0
page id=0 file="state_number.png"
chars count=12
char id=55 x=0 y=172 width=27 height=41 xoffset=0 yoffset=1 xadvance=23 page=0 chnl=0 letter="7"
char id=56 x=29 y=129 width=27 height=41 xoffset=0 yoffset=1 xadvance=23 page=0 chnl=0 letter="8"
char id=53 x=29 y=86 width=27 height=41 xoffset=0 yoffset=1 xadvance=23 page=0 chnl=0 letter="5"
char id=48 x=29 y=43 width=27 height=41 xoffset=0 yoffset=1 xadvance=23 page=0 chnl=0 letter="0"
char id=50 x=29 y=0 width=27 height=41 xoffset=0 yoffset=1 xadvance=23 page=0 chnl=0 letter="2"
char id=54 x=0 y=0 width=27 height=41 xoffset=0 yoffset=1 xadvance=23 page=0 chnl=0 letter="6"
char id=57 x=0 y=129 width=27 height=41 xoffset=0 yoffset=1 xadvance=23 page=0 chnl=0 letter="9"
char id=51 x=0 y=86 width=27 height=41 xoffset=0 yoffset=1 xadvance=24 page=0 chnl=0 letter="3"
char id=52 x=0 y=43 width=27 height=41 xoffset=0 yoffset=1 xadvance=24 page=0 chnl=0 letter="4"
char id=49 x=29 y=172 width=20 height=41 xoffset=0 yoffset=1 xadvance=18 page=0 chnl=0 letter="1"
char id=32 x=0 y=0 width=0 height=0 xoffset=0 yoffset=0 xadvance=0 page=0 chnl=0 letter=" "
char id=9 x=0 y=0 width=0 height=0 xoffset=0 yoffset=0 xadvance=0 page=0 chnl=0 letter="	"

kernings count=0
