info face="bettimes_font" size=32 bold=0 italic=0 charset="" unicode=0 stretchH=100 smooth=1 aa=1 padding=0,0,0,0 spacing=2,2
common lineHeight=110 base=26 scaleW=512 scaleH=512 pages=1 packed=0 alphaChnl=1 redChnl=0 greenChnl=0 blueChnl=0
page id=0 file="bettimes_font.png"
chars count=18
char id=66 x=0 y=83 width=71 height=103 xoffset=0 yoffset=6 xadvance=81 page=0 chnl=0 letter="B"
char id=101 x=70 y=294 width=65 height=82 xoffset=0 yoffset=28 xadvance=75 page=0 chnl=0 letter="e"
char id=116 x=206 y=214 width=49 height=97 xoffset=0 yoffset=13 xadvance=59 page=0 chnl=0 letter="t"
char id=105 x=207 y=84 width=33 height=107 xoffset=0 yoffset=2 xadvance=43 page=0 chnl=0 letter="i"
char id=109 x=0 y=0 width=94 height=81 xoffset=0 yoffset=28 xadvance=104 page=0 chnl=0 letter="m"
char id=115 x=164 y=0 width=62 height=82 xoffset=0 yoffset=28 xadvance=72 page=0 chnl=0 letter="s"
char id=49 x=206 y=313 width=49 height=103 xoffset=0 yoffset=6 xadvance=59 page=0 chnl=0 letter="1"
char id=50 x=71 y=188 width=67 height=104 xoffset=0 yoffset=5 xadvance=77 page=0 chnl=0 letter="2"
char id=51 x=69 y=398 width=67 height=105 xoffset=0 yoffset=5 xadvance=77 page=0 chnl=0 letter="3"
char id=52 x=0 y=188 width=69 height=103 xoffset=0 yoffset=6 xadvance=79 page=0 chnl=0 letter="4"
char id=53 x=138 y=294 width=66 height=104 xoffset=0 yoffset=6 xadvance=76 page=0 chnl=0 letter="5"
char id=54 x=0 y=398 width=67 height=105 xoffset=0 yoffset=5 xadvance=77 page=0 chnl=0 letter="6"
char id=55 x=0 y=293 width=68 height=103 xoffset=0 yoffset=6 xadvance=78 page=0 chnl=0 letter="7"
char id=56 x=140 y=107 width=65 height=105 xoffset=0 yoffset=5 xadvance=75 page=0 chnl=0 letter="8"
char id=57 x=96 y=0 width=66 height=105 xoffset=0 yoffset=5 xadvance=76 page=0 chnl=0 letter="9"
char id=48 x=138 y=400 width=66 height=105 xoffset=0 yoffset=5 xadvance=76 page=0 chnl=0 letter="0"
char id=32 x=0 y=0 width=0 height=0 xoffset=0 yoffset=0 xadvance=50 page=0 chnl=0 letter=" "
char id=9 x=0 y=0 width=0 height=0 xoffset=0 yoffset=0 xadvance=500 page=0 chnl=0 letter="	"

kernings count=0
