info face="mainhall_number_money" size=32 bold=0 italic=0 charset="" unicode=0 stretchH=100 smooth=1 aa=1 padding=0,0,0,0 spacing=5,5
  common lineHeight=32 base=26 scaleW=128 scaleH=128 pages=1 packed=0 alphaChnl=1 redChnl=0 greenChnl=0 blueChnl=0
  page id=0 file="mainhall_number_money.png"
  chars count=12
  char id=48 x=37 y=1 width=16 height=25 xoffset=0 yoffset=1 xadvance=16 yadvance=26 page=0 chnl=0 letter="0"
char id=49 x=1 y=28 width=16 height=25 xoffset=0 yoffset=0 xadvance=16 yadvance=26 page=0 chnl=0 letter="1"
char id=50 x=37 y=55 width=16 height=24 xoffset=0 yoffset=1 xadvance=16 yadvance=26 page=0 chnl=0 letter="2"
char id=51 x=37 y=28 width=16 height=25 xoffset=0 yoffset=1 xadvance=16 yadvance=26 page=0 chnl=0 letter="3"
char id=52 x=19 y=55 width=16 height=24 xoffset=0 yoffset=1 xadvance=16 yadvance=26 page=0 chnl=0 letter="4"
char id=53 x=1 y=55 width=16 height=25 xoffset=0 yoffset=1 xadvance=16 yadvance=26 page=0 chnl=0 letter="5"
char id=54 x=19 y=28 width=16 height=25 xoffset=0 yoffset=1 xadvance=16 yadvance=26 page=0 chnl=0 letter="6"
char id=55 x=19 y=81 width=16 height=24 xoffset=0 yoffset=1 xadvance=16 yadvance=26 page=0 chnl=0 letter="7"
char id=56 x=19 y=1 width=16 height=25 xoffset=0 yoffset=1 xadvance=16 yadvance=26 page=0 chnl=0 letter="8"
char id=57 x=1 y=1 width=16 height=25 xoffset=0 yoffset=1 xadvance=16 yadvance=26 page=0 chnl=0 letter="9"
char id=44 x=55 y=1 width=8 height=9 xoffset=0 yoffset=17 xadvance=8 yadvance=26 page=0 chnl=0 letter=","
char id=46 x=55 y=12 width=8 height=8 xoffset=0 yoffset=18 xadvance=8 yadvance=26 page=0 chnl=0 letter="."
  
  kernings count=0
      