{
  "__type__": "cc.AnimationClip",
  "_name": "bellDice",
  "_objFlags": 0,
  "_rawFiles": null,
  "_duration": 2.5,
  "sample": 60,
  "speed": 0.8,
  "wrapMode": 1,
  "curveData": {
    "paths": {
      "bell1": {
        "props": {
          "active": [
            {
              "frame": 0,
              "value": false
            },
            {
              "frame": 0.9166666666666666,
              "value": false
            },
            {
              "frame": 0.95,
              "value": true
            },
            {
              "frame": 2.5,
              "value": false
            }
          ],
          "position": [
            {
              "frame": 0.95,
              "value": [
                5,
                -17
              ]
            },
            {
              "frame": 1.25,
              "value": [
                5,
                -17
              ]
            },
            {
              "frame": 1.5333333333333334,
              "value": [
                428,
                530
              ]
            },
            {
              "frame": 1.8,
              "value": [
                775,
                738
              ]
            }
          ],
          "rotation": [
            {
              "frame": 0.95,
              "value": 4
            },
            {
              "frame": 1.25,
              "value": 4
            },
            {
              "frame": 1.35,
              "value": 50
            },
            {
              "frame": 1.6666666666666667,
              "value": 80
            }
          ]
        }
      },
      "bell2": {
        "props": {
          "active": [
            {
              "frame": 0,
              "value": true
            },
            {
              "frame": 0.95,
              "value": false
            }
          ],
          "rotation": [
            {
              "frame": 0,
              "value": 4
            },
            {
              "frame": 0.08333333333333333,
              "value": 20
            },
            {
              "frame": 0.16666666666666666,
              "value": -20
            },
            {
              "frame": 0.25,
              "value": 20
            },
            {
              "frame": 0.3333333333333333,
              "value": -20
            },
            {
              "frame": 0.4166666666666667,
              "value": 20
            },
            {
              "frame": 0.5,
              "value": -20
            },
            {
              "frame": 0.5833333333333334,
              "value": 20
            },
            {
              "frame": 0.6666666666666666,
              "value": -20
            },
            {
              "frame": 0.75,
              "value": 20
            },
            {
              "frame": 0.8333333333333334,
              "value": 4
            },
            {
              "frame": 0.9166666666666666,
              "value": 4
            }
          ],
          "position": [
            {
              "frame": 0.8166666666666667,
              "value": [
                8,
                -33
              ]
            },
            {
              "frame": 0.8333333333333334,
              "value": [
                8,
                -33
              ]
            },
            {
              "frame": 0.9166666666666666,
              "value": [
                8,
                -25
              ]
            },
            {
              "frame": 0.95,
              "value": [
                8,
                -33
              ]
            }
          ]
        }
      },
      "bell_dish": {
        "props": {
          "active": [
            {
              "frame": 0,
              "value": false
            },
            {
              "frame": 0.95,
              "value": true
            },
            {
              "frame": 2.5,
              "value": false
            }
          ]
        }
      }
    }
  },
  "events": [
    {
      "frame": 2,
      "func": "onDiceComplete",
      "params": []
    }
  ]
}