[
    {
        "gameId": 10000,
        "gameType": "mainhall",
        "gameName": "游戏大厅",
        "nameLangId": "10000",
        "label": 0,
        "isEnUs": 0,
        "isOpen": 0,
        "noptips": "",
        "iconPri": 0,
        "type": "0",
        "helpTab": "平台介绍,4061,1,game_help_pingtai_png|兑换比例,4062,2,24001",
        "desc": ""
    },
    {
        "gameId": 740,
        "gameType": "erren",
        "gameName": "二人麻将",
        "nameLangId": "740",
        "label": 2,
        "isEnUs": 1,
        "isOpen": 1,
        "noptips": "",
        "iconPri": 90,
        "type": "1",
        "helpTab": "基本玩法,4014,2,74001|番型介绍,4068,1,game_help_740_1_png",
        "desc": ""
    },
    {
        "gameId": 890,
        "gameType": "mpnn",
        "gameName": "看三张抢庄牛牛",
        "nameLangId": "890",
        "label": 2,
        "isEnUs": 1,
        "isOpen": 1,
        "noptips": "",
        "iconPri": 100,
        "type": "1",
        "helpTab": "基本玩法,4014,2,69001|牌型算法,4063,2,83002|牌型大小,4064,2,83003|牌型倍数,4065,2,83004",
        "desc": ""
    },
    {
        "gameId": 830,
        "gameType": "qznn",
        "gameName": "抢庄牛牛",
        "nameLangId": "830",
        "label": 2,
        "isEnUs": 1,
        "isOpen": 1,
        "noptips": "",
        "iconPri": 200,
        "type": "1",
        "helpTab": "基本玩法,4014,2,83001|牌型算法,4063,2,83002|牌型大小,4064,2,83003|牌型倍数,4065,2,83004",
        "desc": ""
    },
    {
        "gameId": 600,
        "gameType": "black",
        "gameName": "21点",
        "nameLangId": "600",
        "label": 2,
        "isEnUs": 1,
        "isOpen": 1,
        "noptips": "",
        "iconPri": 300,
        "type": "1",
        "helpTab": "玩法攻略,4066,1,game_help_600_1_png|基本玩法,4014,2,60005|牌型大小,4064,2,60007|牌型结算,4067,2,60023",
        "desc": ""
    },
    {
        "gameId": 220,
        "gameType": "gflower",
        "gameName": "炸金花",
        "nameLangId": "220",
        "label": 2,
        "isEnUs": 1,
        "isOpen": 1,
        "noptips": "",
        "iconPri": 500,
        "type": "1",
        "helpTab": "基本玩法,4014,2,22001|牌型说明,4016,2,22002",
        "desc": ""
    },
    {
        "gameId": 720,
        "gameType": "erba",
        "gameName": "二八杠",
        "nameLangId": "720",
        "label": 0,
        "isEnUs": 1,
        "isOpen": 1,
        "noptips": "",
        "iconPri": 600,
        "type": "1",
        "helpTab": "基本玩法,4014,2,72001|牌型说明,4016,1,game_help_720_1_png",
        "desc": ""
    },
    {
        "gameId": 860,
        "gameType": "sang",
        "gameName": "三公",
        "nameLangId": "860",
        "label": 2,
        "isEnUs": 1,
        "isOpen": 1,
        "noptips": "",
        "iconPri": 700,
        "type": "1",
        "helpTab": "基本玩法,4014,2,86001|牌型算法,4067,2,86002|牌型大小,4064,2,86003|牌型倍数,4065,2,86004",
        "desc": ""
    },
    {
        "gameId": 900,
        "gameType": "lh",
        "gameName": "龙虎斗",
        "nameLangId": "900",
        "label": 0,
        "isEnUs": 1,
        "isOpen": 1,
        "noptips": "",
        "iconPri": 800,
        "type": "2",
        "helpTab": "基本玩法,4014,2,90001|下注说明,4073,2,90002|牌型大小,4064,2,90003|牌型倍数,4065,2,90004",
        "desc": ""
    },
    {
        "gameId": 620,
        "gameType": "holdem",
        "gameName": "德州扑克",
        "nameLangId": "620",
        "label": 0,
        "isEnUs": 1,
        "isOpen": 1,
        "noptips": "",
        "iconPri": 900,
        "type": "1",
        "helpTab": "基本玩法,4014,1,game_help_620_0_png|游戏操作,4015,1,game_help_620_3_jpg|牌型说明,4016,1,game_help_620_2_png|功能键说明,4017,2,62001|前注规则,4074,2,62002",
        "desc": ""
    },
    {
        "gameId": 930,
        "gameType": "brnn",
        "gameName": "百人牛牛",
        "nameLangId": "930",
        "label": 0,
        "isEnUs": 1,
        "isOpen": 1,
        "noptips": "",
        "iconPri": 950,
        "type": "2",
        "helpTab": "玩法介绍,4072,2,93001|赔  付,4071,2,93002",
        "desc": ""
    },
    {
        "gameId": 870,
        "gameType": "tbnn",
        "gameName": "通比牛牛",
        "nameLangId": "870",
        "label": 0,
        "isEnUs": 1,
        "isOpen": 1,
        "noptips": "",
        "iconPri": 1500,
        "type": "1",
        "helpTab": "基本玩法,4014,2,87001|牌型算法,4063,2,87002|牌型大小,4064,2,87003|牌型倍数,4065,2,87004|托管功能,4075,2,87005",
        "desc": ""
    },
    {
        "gameId": 950,
        "gameType": "hhdz",
        "gameName": "红黑大战",
        "nameLangId": "950",
        "label": 0,
        "isEnUs": 1,
        "isOpen": 1,
        "noptips": "",
        "iconPri": 1200,
        "type": "2",
        "helpTab": "牌型说明,4016,2,95001|牌型大小,4064,2,95002|限  红,4070,1,hh_help_xianhong_png|赔  付,4071,1,hh_help_peifu_png",
        "desc": ""
    },
    {
        "gameId": 730,
        "gameType": "qzpj",
        "gameName": "抢庄牌九",
        "nameLangId": "730",
        "label": 0,
        "isEnUs": 1,
        "isOpen": 1,
        "noptips": "",
        "iconPri": 1250,
        "type": "1",
        "helpTab": "玩法介绍,4072,2,73001|对牌大小,4076,1,pj_help_shuangpai_png|对牌说明,4077,1,pj_help_dpsm_png|单牌大小,4078,1,pj_help_danpai_png",
        "desc": ""
    },
    {
        "gameId": 910,
        "gameType": "bjl",
        "gameName": "百家乐",
        "nameLangId": "910",
        "label": 0,
        "isEnUs": 1,
        "isOpen": 1,
        "noptips": "",
        "iconPri": 1300,
        "type": "2",
        "helpTab": "玩法介绍,4072,2,91001|补牌规则,4080,1,baccarat_hall_help_1_png|赔  付,4071,1,baccarat_hall_help_3_png|限  红,4070,1,baccarat_hall_help_4_png",
        "desc": ""
    },
    {
        "gameId": 8120,
        "gameType": "xzdd",
        "gameName": "血战到底",
        "nameLangId": "8120",
        "label": 1,
        "isEnUs": 0,
        "isOpen": 1,
        "noptips": "",
        "iconPri": 2000,
        "type": "1",
        "helpTab": "基本规则,4014,2,81201|番型介绍,4092,2,81202|特殊规则,4090,1,game_help_8120_1_png|结算规则,4079,2,81203",
        "desc": ""
    },
    {
        "gameId": 630,
        "gameType": "sss",
        "gameName": "十三水",
        "nameLangId": "630",
        "label": 0,
        "isEnUs": 1,
        "isOpen": 1,
        "noptips": "",
        "iconPri": 1600,
        "type": "1",
        "helpTab": "玩法介绍,4072,2,63001|牌型说明,4016,2,63002",
        "desc": ""
    },
    {
        "gameId": 230,
        "gameType": "jsgflower",
        "gameName": "极速炸金花",
        "nameLangId": "230",
        "label": 0,
        "isEnUs": 1,
        "isOpen": 1,
        "noptips": "",
        "iconPri": 1700,
        "type": "1",
        "helpTab": "基本玩法,4014,2,23001|牌型说明,4016,2,23002|牌型大小,4064,2,23003|牌型倍数,4065,2,23004",
        "desc": ""
    },
    {
        "gameId": 380,
        "gameType": "luckyfive",
        "gameName": "幸运5张",
        "nameLangId": "380",
        "label": 0,
        "isEnUs": 0,
        "isOpen": 0,
        "noptips": "",
        "iconPri": 1800,
        "type": "3",
        "helpTab": "基本玩法,4014,2,38001|结算规则,4079,2,38002|牌型说明,4016,1,game_help_620_2_png",
        "desc": ""
    },
    {
        "gameId": 920,
        "gameType": "forestparty",
        "gameName": "森林舞会",
        "nameLangId": "920",
        "label": 0,
        "isEnUs": 1,
        "isOpen": 1,
        "noptips": "",
        "iconPri": 1900,
        "type": "2,3",
        "helpTab": "玩法介绍,4072,2,92011|下注限制,4087,1,game_help_920_1_png|倍数说明,4088,1,game_help_920_2_png",
        "desc": ""
    },
    {
        "gameId": 510,
        "gameType": "hbby",
        "gameName": "捕鱼大作战",
        "nameLangId": "510",
        "label": 1,
        "isEnUs": 0,
        "isOpen": 1,
        "noptips": "",
        "iconPri": 1000,
        "type": "1",
        "helpTab": "玩法介绍,4072,2,51006|鱼种类介绍,5010,1,pj_help_hbby_png",
        "desc": ""
    },
    {
        "gameId": 610,
        "gameType": "ddz",
        "gameName": "斗地主",
        "nameLangId": "610",
        "label": 2,
        "isEnUs": 1,
        "isOpen": 1,
        "noptips": "",
        "iconPri": 2100,
        "type": "1",
        "helpTab": "基本玩法,4014,2,61001|基本玩法,4014,2,61002|牌型大小,4064,2,61003|牌型倍数,4065,2,61004",
        "desc": ""
    },
    {
        "gameId": 8110,
        "gameType": "xlch",
        "gameName": "血流成河",
        "nameLangId": "8110",
        "label": 0,
        "isEnUs": 0,
        "isOpen": 2,
        "noptips": "",
        "iconPri": 2200,
        "type": "1",
        "helpTab": "基本玩法,4014,2,38001|结算规则,4079,2,38002|牌型说明,4016,1,game_help_620_2_png",
        "desc": ""
    },
    {
        "gameId": 8130,
        "gameType": "pdk",
        "gameName": "跑得快",
        "nameLangId": "8130",
        "label": 0,
        "isEnUs": 0,
        "isOpen": 2,
        "noptips": "",
        "iconPri": 2200,
        "type": "1",
        "helpTab": "基本玩法,4014,2,813001|结算规则,4079,2,813004|牌型说明,4016,2,813002|特殊规则,4090,2,813003",
        "desc": ""
    },
    {
        "gameId": 8140,
        "gameType": "sgj",
        "gameName": "水果机",
        "nameLangId": "8140",
        "label": 0,
        "isEnUs": 0,
        "isOpen": 0,
        "noptips": "",
        "iconPri": 2200,
        "type": "3",
        "helpTab": "基本玩法,4014,2,38001|结算规则,40792,2,38002|牌型说明,4016,1,game_help_620_2_png",
        "desc": ""
    },
    {
        "gameId": 8150,
        "gameType": "ksznn",
        "gameName": "看四张抢庄牛牛",
        "nameLangId": "8150",
        "label": 0,
        "isEnUs": 0,
        "isOpen": 2,
        "noptips": "",
        "iconPri": 2200,
        "type": "1",
        "helpTab": "基本玩法,4014,2,81501|牌型算法,4063,2,81502|牌型大小,4064,2,81503|牌型倍数,4065,2,81504",
        "desc": ""
    },
    {
        "gameId": 8160,
        "gameType": "lznn",
        "gameName": "癞子牛牛",
        "nameLangId": "8160",
        "label": 0,
        "isEnUs": 0,
        "isOpen": 0,
        "noptips": "",
        "iconPri": 2200,
        "type": "1",
        "helpTab": "基本玩法,4014,2,81501|牌型算法,4063,2,81502|牌型大小,4064,2,81503|牌型倍数,4065,2,81504",
        "desc": ""
    },
    {
        "gameId": 8180,
        "gameType": "bsxxl",
        "gameName": "宝石消消乐",
        "nameLangId": "8180",
        "label": 0,
        "isEnUs": 0,
        "isOpen": 2,
        "noptips": "",
        "iconPri": 2200,
        "type": "3",
        "helpTab": "游戏规则,8181,2,81801|投注规则,8182,2,81802|赔付表,8183,2,81803",
        "desc": ""
    }
]