info face="BetFactor_font.png" size=32 bold=0 italic=0 charset="" unicode=0 stretchH=100 smooth=1 aa=1 padding=0,0,0,0 spacing=2,2
common lineHeight=35 base=26 scaleW=128 scaleH=128 pages=1 packed=0 alphaChnl=1 redChnl=0 greenChnl=0 blueChnl=0
page id=0 file="BetFactor_font.png"
chars count=20
char id=48 x=38 y=63 width=16 height=29 xoffset=0 yoffset=6 xadvance=17 page=0 chnl=0 letter="0"
char id=49 x=70 y=93 width=12 height=29 xoffset=0 yoffset=6 xadvance=13 page=0 chnl=0 letter="1"
char id=50 x=0 y=94 width=17 height=29 xoffset=0 yoffset=6 xadvance=18 page=0 chnl=0 letter="2"
char id=51 x=56 y=62 width=16 height=29 xoffset=0 yoffset=6 xadvance=17 page=0 chnl=0 letter="3"
char id=52 x=0 y=63 width=18 height=29 xoffset=0 yoffset=6 xadvance=19 page=0 chnl=0 letter="4"
char id=53 x=43 y=31 width=16 height=29 xoffset=0 yoffset=6 xadvance=17 page=0 chnl=0 letter="5"
char id=54 x=54 y=0 width=16 height=29 xoffset=0 yoffset=6 xadvance=17 page=0 chnl=0 letter="6"
char id=55 x=19 y=94 width=17 height=29 xoffset=0 yoffset=6 xadvance=18 page=0 chnl=0 letter="7"
char id=56 x=38 y=94 width=16 height=29 xoffset=0 yoffset=6 xadvance=17 page=0 chnl=0 letter="8"
char id=57 x=36 y=0 width=16 height=29 xoffset=0 yoffset=6 xadvance=17 page=0 chnl=0 letter="9"
char id=116 x=56 y=93 width=12 height=27 xoffset=0 yoffset=8 xadvance=13 page=0 chnl=0 letter="t"
char id=105 x=61 y=31 width=7 height=29 xoffset=0 yoffset=6 xadvance=8 page=0 chnl=0 letter="i"
char id=109 x=0 y=38 width=23 height=23 xoffset=0 yoffset=12 xadvance=24 page=0 chnl=0 letter="m"
char id=101 x=20 y=63 width=16 height=23 xoffset=0 yoffset=12 xadvance=17 page=0 chnl=0 letter="e"
char id=115 x=25 y=38 width=16 height=23 xoffset=0 yoffset=12 xadvance=17 page=0 chnl=0 letter="s"
char id=20493 x=0 y=0 width=34 height=36 xoffset=0 yoffset=3 xadvance=35 page=0 chnl=0 letter="倍"
char id=40 x=72 y=0 width=12 height=35 xoffset=0 yoffset=5 xadvance=13 page=0 chnl=0 letter="("
char id=41 x=74 y=37 width=12 height=35 xoffset=0 yoffset=5 xadvance=13 page=0 chnl=0 letter=")"
char id=32 x=0 y=0 width=0 height=0 xoffset=0 yoffset=0 xadvance=5 page=0 chnl=0 letter=" "
char id=9 x=0 y=0 width=0 height=0 xoffset=0 yoffset=0 xadvance=50 page=0 chnl=0 letter="	"

kernings count=0
