info face="number_btn_bei" size=32 bold=0 italic=0 charset="" unicode=0 stretchH=100 smooth=1 aa=1 padding=0,0,0,0 spacing=5,5
  common lineHeight=32 base=26 scaleW=128 scaleH=128 pages=1 packed=0 alphaChnl=1 redChnl=0 greenChnl=0 blueChnl=0
  page id=0 file="number_btn_bei.png"
  chars count=12
  char id=48 x=43 y=1 width=19 height=28 xoffset=0 yoffset=2 xadvance=19 yadvance=30 page=0 chnl=0 letter="0"
char id=49 x=1 y=91 width=17 height=28 xoffset=2 yoffset=2 xadvance=19 yadvance=30 page=0 chnl=0 letter="1"
char id=50 x=21 y=61 width=18 height=28 xoffset=1 yoffset=2 xadvance=19 yadvance=30 page=0 chnl=0 letter="2"
char id=51 x=42 y=31 width=18 height=28 xoffset=1 yoffset=2 xadvance=19 yadvance=30 page=0 chnl=0 letter="3"
char id=52 x=1 y=1 width=19 height=28 xoffset=0 yoffset=2 xadvance=19 yadvance=30 page=0 chnl=0 letter="4"
char id=53 x=41 y=61 width=17 height=28 xoffset=2 yoffset=2 xadvance=19 yadvance=30 page=0 chnl=0 letter="5"
char id=54 x=1 y=61 width=18 height=28 xoffset=1 yoffset=2 xadvance=19 yadvance=30 page=0 chnl=0 letter="6"
char id=55 x=1 y=31 width=19 height=28 xoffset=0 yoffset=2 xadvance=19 yadvance=30 page=0 chnl=0 letter="7"
char id=56 x=22 y=31 width=18 height=28 xoffset=1 yoffset=2 xadvance=19 yadvance=30 page=0 chnl=0 letter="8"
char id=57 x=22 y=1 width=19 height=28 xoffset=0 yoffset=2 xadvance=19 yadvance=30 page=0 chnl=0 letter="9"
char id=44 x=20 y=91 width=7 height=12 xoffset=0 yoffset=24 xadvance=8 yadvance=36 page=0 chnl=0 letter=","
char id=46 x=29 y=91 width=8 height=7 xoffset=0 yoffset=25 xadvance=8 yadvance=36 page=0 chnl=0 letter="."
  
  kernings count=0
      